,tactic,technique,technique_id,GOLD SOUTHFIELD,Chimera,Windshift,Blue Mockingbird,Whitefly,Rocke,DarkVishnya,Sharpshooter,Mofang,Wizard Spider,Frankenstein,Inception,APT-C-36,BlackTech,APT41,Machete,Kimsuky,Soft Cell,TA505,Silence,WIRTE,The White Company,TEMP.Veles,APT39,Stolen Pencil,FIN4,Gallmaker,SilverTerrier,APT38,Tropic Trooper,APT19,Dragonfly 2.0,Dark Caracal,Gorgon Group,Cobalt Group,Orangeworm,DarkHydrus,Rancor,Thrip,Honeybee,Leafminer,APT37,Leviathan,APT33,MuddyWater,BlackOasis,FIN8,Elderwood,PLATINUM,TA459,BRONZE BUTLER,PROMETHIUM,FIN5,CopyKittens,Magic Hound,Sowbug,APT32,OilRig,FIN10,RTM,Gamaredon Group,FIN7,menuPass,Winnti Group,Group5,Strider,Patchwork,Suckfly,Stealth Falcon,FIN6,GCMAN,Dragonfly,Sandworm Team,Poseidon Group,Lazarus Group,Dust Storm,Scarlet Mimic,Threat Group-1314,Threat Group-3390,APT18,APT17,Putter Panda,APT16,APT3,Molerats,Equation,Naikon,admin@338,APT29,Night Dragon,APT30,Darkhotel,PittyTiger,Turla,Deep Panda,Carbanak,APT28,APT1,APT12,Ke3chang,Cleaver,Moafee,Axiom
1,initial-access,Compromise Software Supply Chain,T1195.002,1.0,,,,,,,,,,,,,,1.0,,,,,,,,,,,,,,,,,,,,,,,,,,,,,,,,,,,,,,,,,,,,,,,,,,,,,,,,,1.0,1.0,,,,,,,,,,,,,,,,,,,,,,,,,,,,,,
2,initial-access,Phishing,T1566,1.0,,,,,,,,,,,,,,,,,,,,,,,,,,,,,,,,,,,,,,,,,,,,,,,,,,,,,,,,,,,,,,,,,,,,,,,1.0,,,,,,,,,,,,,,,,,,,,,,,,,,,,,,,
3,initial-access,Exploit Public-Facing Application,T1190,1.0,,,1.0,,1.0,,,,,,,,1.0,1.0,,,1.0,,,,,,1.0,,,,,,,,,,,,,,,,,,,,,,,,,,,,,,,,,,,,,,,,,,,,,,,,,,,,,,,,,,,,,,,,,1.0,1.0,,,,,,,1.0,,,,,,1.0
4,initial-access,Trusted Relationship,T1199,1.0,,,,,,,,,,,,,,,,,,,,,,,,,,,,,,,,,,,,,,,,,,,,,,,,,,,,,,,,,,,,,,1.0,,,,,,,,,,,,,,,,,,,,,,,,,,,,,,,,,,1.0,,,,,,
5,persistence| initial-access,External Remote Services,T1133,1.0,1.0,,,,,,,,1.0,,,,,1.0,,,1.0,,,,,1.0,,,,,,,,,1.0,,,,,,,,,,,,,,,,,,,,,1.0,,,,,1.0,,,,,,,,,,,,,,,1.0,,,,,,1.0,1.0,,,,,,,,,,1.0,,,,,,,,,,1.0,,,
6,execution,PowerShell,T1059.001,,1.0,,1.0,,,1.0,,,1.0,1.0,1.0,,,1.0,,1.0,1.0,1.0,1.0,1.0,,1.0,1.0,,,1.0,,,,1.0,1.0,,1.0,1.0,,1.0,,1.0,,,,1.0,1.0,1.0,,1.0,,,1.0,1.0,,,1.0,1.0,,1.0,1.0,1.0,,,1.0,1.0,,,,1.0,,1.0,1.0,,,,1.0,1.0,,,,1.0,,,,,1.0,1.0,,,,1.0,,,,,1.0,1.0,,1.0,,,,,,
7,discovery,Domain Account,T1087.002,,1.0,,,,,,,,1.0,,,,,,,,,,,,,,,,,,,,,,1.0,,,,,,,,,,,,,,,,,,,1.0,,,,,,,1.0,,,,,1.0,,,,,,,1.0,,,1.0,1.0,,,,,,,,,,,,,,,,,,,,1.0,,,,,,1.0,,,
8,collection,Archive via Utility,T1560.001,,1.0,,,,,,,,,,,,,1.0,,,1.0,,,,,,1.0,,,1.0,,,,,,,,,,,,,,,,,1.0,1.0,,1.0,,,,1.0,,,1.0,1.0,1.0,,,,,,,1.0,,,,,,,,,,,,,,,,,,,,,1.0,,,,,,,,,,1.0,,,,1.0,,1.0,,,
9,credential-access| defense-evasion,Domain Controller Authentication,T1556.001,,1.0,,,,,,,,,,,,,,,,,,,,,,,,,,,,,,,,,,,,,,,,,,,,,,,,,,,,,,,,,,,,,,,,,,,,,,,,,,,,,,,,,,,,,,,,,,,,,,,,,,,,,
10,credential-access,NTDS,T1003.003,,1.0,,,,,,,,1.0,,,,,,,,,,,,,,,,,,,,,,1.0,,,,,,,,,,,,,,,,,,,,,,,,,,,,,,,,,,,,,,1.0,,,,,,,,,,,,,,,,,,,,,,,,,,,,,,,,,
11,lateral-movement,SMB/Windows Admin Shares,T1021.002,,1.0,,1.0,,,,,,1.0,,,,,,,,,,,,,,1.0,,,,,,,,,,,,1.0,,,,,,,,,,,1.0,,,,,,,,,,1.0,,,,,,,,,,,,,,,,,,1.0,,,1.0,,,,,,1.0,,,,,,,,,,1.0,1.0,,,,,1.0,,,
12,lateral-movement,Remote Desktop Protocol,T1021.001,,1.0,,1.0,,,,,,1.0,,,,,1.0,,,,,1.0,,,1.0,1.0,1.0,,,,,,,1.0,,,1.0,,,,,,,,1.0,,,,1.0,,,,,,,,,,,1.0,1.0,,,,1.0,,,,1.0,,,1.0,,,,,1.0,,,,,,,,,1.0,,,,,,,,,,,,,,1.0,,,,,1.0
13,defense-evasion,Match Legitimate Name or Location,T1036.005,,1.0,,1.0,1.0,1.0,,,,,,,,,1.0,,,,,1.0,,,1.0,1.0,,,,,,1.0,,,,,,,,,,,,,,,1.0,,,,,,1.0,1.0,,,,1.0,1.0,,,,,,1.0,,,,1.0,,,,,,1.0,1.0,,,,,,,,,,,,,,1.0,,,,,,,,1.0,,1.0,,,,,
14,execution| persistence| privilege-escalation,Scheduled Task,T1053.005,,1.0,,1.0,,,,,,1.0,1.0,,1.0,,1.0,1.0,,1.0,,1.0,,,1.0,1.0,,,,,,,,1.0,,,1.0,,,1.0,,,,,,1.0,1.0,,1.0,,,,1.0,,,,,,1.0,1.0,1.0,,1.0,1.0,1.0,,,,1.0,,1.0,1.0,,,,,,,,,,,,,,1.0,,,,,1.0,,,,,,,,,,,,,,
15,execution,Native API,T1106,,1.0,,,,,,1.0,,,,,,,,,,,,1.0,,,,,,,,,,1.0,,,,1.0,,,,,,,,1.0,,,,,,,,,,,,,,,,,,,1.0,,,,,,,,,,,,,,,,,,,,,,,,,,,,,,,,,1.0,,,,,,,,,
16,command-and-control,Ingress Tool Transfer,T1105,,1.0,,,1.0,1.0,,1.0,,,1.0,,1.0,,1.0,,,1.0,1.0,1.0,1.0,,,1.0,,,,,1.0,1.0,,1.0,,1.0,1.0,,,1.0,,,,1.0,1.0,1.0,1.0,,1.0,1.0,1.0,,1.0,,,,1.0,,1.0,1.0,,,1.0,1.0,1.0,,,,1.0,,,,,,1.0,,1.0,,,,1.0,1.0,,,,1.0,1.0,,,,,,,,,1.0,,,1.0,,,,,,
17,command-and-control,Web Service,T1102,,1.0,,,,1.0,,,,,,1.0,,,,,,,,,,,,,,,,,,,,,,,,,,,,,,,,,,,,,,,,,,,,,,,,,1.0,,,,,,,,,1.0,,,,,,,,,,,,,,,,,,,,,,,,,,,,,,,,,
18,defense-evasion| persistence| privilege-escalation| initial-access,Valid Accounts,T1078,,1.0,,,,,,,,1.0,,,,,1.0,,,1.0,,1.0,,,1.0,1.0,,1.0,,,,,,1.0,,,,,,,,,,,1.0,1.0,,,1.0,,,,,,1.0,,,,,1.0,1.0,,,,1.0,,,,,1.0,,1.0,,,1.0,,,,,,1.0,1.0,,,,,,,,,,1.0,,,1.0,,,1.0,1.0,,,,,,
19,execution,Windows Management Instrumentation,T1047,,1.0,,1.0,,,,,,1.0,1.0,,,,1.0,,,1.0,,,,,,,,,,,,,,,,,,,,,,,,,1.0,,1.0,,1.0,,,,,,,,,,1.0,1.0,,,,,1.0,,,,,,1.0,1.0,,,,,1.0,,,,1.0,,,,,,,,,,1.0,,,,,,1.0,,,,,,,,
20,defense-evasion,Obfuscated Files or Information,T1027,,1.0,,1.0,1.0,1.0,,,1.0,1.0,1.0,1.0,1.0,,1.0,1.0,,1.0,1.0,1.0,,,,,,,1.0,,,1.0,1.0,,1.0,,1.0,,,,,1.0,1.0,1.0,1.0,1.0,1.0,1.0,1.0,1.0,,,,,,,1.0,,1.0,1.0,,,1.0,1.0,1.0,,1.0,,1.0,,,1.0,,,1.0,,1.0,1.0,,,1.0,1.0,,1.0,,1.0,1.0,,,,1.0,1.0,,1.0,,1.0,,,1.0,,,,,,
21,execution,Malicious File,T1204.002,,,1.0,,1.0,,,1.0,1.0,1.0,1.0,1.0,1.0,1.0,,1.0,,,1.0,1.0,,1.0,,1.0,,1.0,1.0,,,1.0,1.0,1.0,1.0,1.0,1.0,,1.0,1.0,,,,1.0,1.0,1.0,1.0,,1.0,1.0,1.0,1.0,1.0,1.0,,,1.0,,1.0,1.0,,1.0,1.0,1.0,1.0,,,,1.0,,,1.0,,,1.0,,1.0,,,,,,,,,,1.0,,1.0,1.0,1.0,,1.0,1.0,,,,,1.0,,1.0,,,,
22,execution,Malicious Link,T1204.001,,,1.0,,,,,,1.0,1.0,,,,1.0,,1.0,,,1.0,,,,,1.0,,1.0,,,,,,1.0,,,1.0,,,,,,,,1.0,1.0,,,1.0,1.0,,,,,,,,,1.0,1.0,,,,,,,,,1.0,,,,,,,,,,,,,,,,,,1.0,,,,,1.0,,,,1.0,,,,,,,,,
23,initial-access,Spearphishing via Service,T1566.003,,,1.0,,,,,,,,,,,,,,,,,,,,,,,,,,,,,,1.0,,,,,,,,,,,,,,,,,,,,,,1.0,,,1.0,,,,,,,,,,,,1.0,,,,,1.0,,,,,,,,,,,,,,,,,,,,,,,,,,,,
24,initial-access,Spearphishing Link,T1566.002,,,1.0,,,,,,1.0,1.0,,,,1.0,,1.0,1.0,,1.0,,,,,1.0,1.0,1.0,,,,,,1.0,,,1.0,,,,,,,,1.0,1.0,,,1.0,1.0,,,,,,,1.0,,1.0,1.0,,,,,,,,,1.0,,,,,,,,,,,,,,,,,,1.0,,,,1.0,1.0,,,,1.0,,,1.0,1.0,,,,,
25,initial-access,Spearphishing Attachment,T1566.001,,,1.0,,,,,1.0,1.0,1.0,1.0,1.0,1.0,1.0,1.0,1.0,1.0,,1.0,1.0,,1.0,,1.0,,1.0,1.0,,,1.0,1.0,1.0,,1.0,1.0,,1.0,1.0,,,,1.0,1.0,1.0,1.0,,1.0,1.0,1.0,1.0,1.0,,,,1.0,,1.0,1.0,,1.0,1.0,1.0,1.0,,,,1.0,,,1.0,,,1.0,,1.0,,,,,,,,,,1.0,,1.0,1.0,1.0,,1.0,1.0,,1.0,,,1.0,1.0,1.0,,,,
26,defense-evasion,Invalid Code Signature,T1036.001,,,1.0,,,,,,,,,,,,,,,,,,,,,,,,,,,,,,,,,,,,,,,1.0,,,,,,,,,,,,,,,,,,,,,,,,,,,,,,,,,,,,,,,,,,,,,,,,,,,,,,,,,,,,,
27,initial-access,Drive-by Compromise,T1189,,,1.0,,,,,,,,,,,,,,,,,,,,,,,,,,1.0,,1.0,1.0,1.0,,,,,,,,1.0,1.0,,,,,,1.0,1.0,,1.0,1.0,,,,,1.0,,,1.0,,,,,,,1.0,,,,,1.0,,,1.0,,,,1.0,,,,,,,,,,,,,1.0,,1.0,,,,,,,,,
28,defense-evasion,Masquerading,T1036,,,1.0,,,,,,,,,,,,,,,,,,,,,,,,,,,,,1.0,,,,,,,,,,,,,,,,,,,1.0,,,,,,1.0,,,,,,1.0,,,,,,,,,,,,,,,,,,,,,,,,,,,,,,,,,,,,,,,,
29,persistence| privilege-escalation| defense-evasion,COR_PROFILER,T1574.012,,,,1.0,,,,,,,,,,,,,,,,,,,,,,,,,,,,,,,,,,,,,,,,,,,,,,,,,,,,,,,,,,,,,,,,,,,,,,,,,,,,,,,,,,,,,,,,,,,,,,,,,,,
30,execution,Service Execution,T1569.002,,,,1.0,,,,,,1.0,,,,,1.0,,,,,1.0,,,,1.0,,,,,,,,,,,,,,,,1.0,,,,,,,,,,,,,,,,,1.0,,,,,,,,,,,,,1.0,,,,,,,,,,,,,,,,,,,,,,,,,,,,,,1.0,,,
31,execution,Windows Command Shell,T1059.003,,,,1.0,,,,,,1.0,1.0,,,,1.0,,,1.0,1.0,1.0,,,,,,,,,1.0,1.0,,1.0,1.0,1.0,1.0,,,1.0,,1.0,,1.0,1.0,,1.0,,1.0,,,,1.0,,,,1.0,1.0,1.0,1.0,1.0,,1.0,1.0,1.0,,,,1.0,1.0,,1.0,,,,,1.0,,,1.0,1.0,1.0,,,,1.0,,,,1.0,,,,1.0,,1.0,,,1.0,1.0,,1.0,,,
32,credential-access,LSASS Memory,T1003.001,,,,1.0,1.0,,,,,,,,,,1.0,,,1.0,,1.0,,,1.0,1.0,1.0,,,,,,,,,,,,,,,,1.0,,1.0,1.0,1.0,,1.0,,1.0,,1.0,,,,1.0,,1.0,1.0,,,,,,,,,,,,1.0,,,1.0,,1.0,,,,1.0,,,,,1.0,,,,,,,,,,,,,1.0,1.0,,1.0,1.0,,
33,privilege-escalation| persistence,Windows Management Instrumentation Event Subscription,T1546.003,,,,1.0,,,,,,,,,,,,,,,,,,,,,,,,,,,,,,,,,,,,,,,1.0,1.0,,,,,,,,,,,,,,,,,,,,,,,,,,,,,,,,,,,,,,,,,,,,,1.0,,,,,1.0,,,,,,,,,
34,defense-evasion,Regsvr32,T1218.010,,,,1.0,,,,,,,,1.0,,,,,,,,,1.0,,,,,,,,,,1.0,,,,1.0,,,,,,,,1.0,,,,,,,,,,,,,,1.0,,,,,,,,,,,,,,,,,,,,,,,,,,,,,,,,,,,,,,1.0,,,,,,,,
35,defense-evasion,Rundll32,T1218.011,,,,1.0,,,,,,,,,,,,,,,1.0,,,,,,,,,,,,1.0,,,,,,,,,,,,,,1.0,,,,,,,,,1.0,,,1.0,,,,1.0,,,,,,,,,,,,1.0,,,,,,,,,,,1.0,,,,,1.0,,,,,,,1.0,1.0,,,,,,
36,persistence| privilege-escalation,Windows Service,T1543.003,,,,1.0,,,1.0,,,1.0,,,,,1.0,,1.0,,,,,,,,,,,,,1.0,1.0,,,,1.0,,,,,1.0,,,,,,,,,,,,1.0,,,,,1.0,,,,,1.0,,,,,,,,,,,,,1.0,,,,1.0,,,,,1.0,,,,,,,,,,,,1.0,,,,1.0,,,
37,impact,Resource Hijacking,T1496,,,,1.0,,1.0,,,,,,,,,1.0,,,,,,,,,,,,,,,,,,,,,,,,,,,,,,,,,,,,,,,,,,,,,,,,,,,,,,,,,,,,1.0,,,,,,,,,,,,,,,,,,,,,,,,,,,,
38,defense-evasion| privilege-escalation,Access Token Manipulation,T1134,,,,1.0,,,,,,,,,,,,,,,,,,,,,,,,,,,,,,,,,,,,,,,,,,,,,,,,,,,,,,,,,,,,,,,,,,1.0,,,,,,,,,,,,,,,,,,,,,,,,,,,,,,,,,
39,defense-evasion,Modify Registry,T1112,,,,1.0,,,,,,1.0,,,,,1.0,,,,,1.0,,,,,,,,,1.0,,1.0,1.0,,1.0,,,,,,1.0,,,,,,,1.0,,,,,,,,,,1.0,,,,1.0,,,,,,1.0,,,,,,,,1.0,,,,1.0,,,,,,,,,,,,,,,1.0,,,,,,,,,
40,command-and-control,Proxy,T1090,,,,1.0,,,,,,,,,,,1.0,,,,,,,,,,,,,,,,,,,,,,,,,,,,,,,,,,,,,,,,,,,,,,,,,,,,,,,,,,1.0,,,,,,,,,,,,,,,,,,,,,1.0,,,,,,,,,
41,discovery,System Information Discovery,T1082,,,,1.0,,1.0,,,,1.0,1.0,1.0,,,,,1.0,,,,,,,,,,,,,1.0,1.0,,,,,,,,,1.0,,1.0,,,1.0,,,,,,,,,,1.0,1.0,1.0,1.0,,,1.0,,,,,,1.0,,1.0,,,,1.0,,1.0,,,,,1.0,,,,1.0,,,,1.0,,,,1.0,,1.0,,,,,,1.0,,,
42,persistence| privilege-escalation| defense-evasion,DLL Search Order Hijacking,T1574.001,,,,,1.0,,,,,,,,,,,,,,,,,,,,,,,,,,,,,,,,,,,,,,,,,,,,,,,,,,,,,,,1.0,,,1.0,,,,,,,,,,,,,,,,1.0,,,,,,,,,,,,,,,,,,,,,,,,
43,privilege-escalation,Exploitation for Privilege Escalation,T1068,,,,,1.0,,,,,,,,,,,,,,,,,,,,,,,,,,,,,,1.0,,,,,,,,,1.0,,,1.0,,1.0,,,,,,,,1.0,,,,,,,,,,,,,1.0,,,,,,,,,1.0,,,,,,,,,,,,,,,,,,1.0,,,,,,
44,execution,Command and Scripting Interpreter,T1059,,,,,1.0,,,,,,,,,,,,,,,,,,,1.0,,,,,,,1.0,1.0,,,,,,,,,,,,,,,,,,,,,1.0,,,,1.0,1.0,,,,1.0,,,,,,,1.0,1.0,,,,,,,,,,,,,,,1.0,,,,,,,,,,,,,,,1.0,,,
45,defense-evasion,Compile After Delivery,T1027.004,,,,,,1.0,,,,,,,,,,,,,,,,,,,,,,,,,,,,,,,,,,,,,,,1.0,,,,,,,,,,,,,,,,1.0,,,,,,,,,,,,,,,,,,,,,,,,,,,,,,,,,,,,,,,,,,
46,command-and-control,Web Protocols,T1071.001,,,,,,1.0,,,,1.0,,1.0,,,1.0,1.0,,,1.0,,1.0,,,1.0,,1.0,,1.0,1.0,1.0,1.0,,1.0,,1.0,1.0,,1.0,,,,1.0,,1.0,1.0,,,,,,1.0,,,,1.0,,1.0,1.0,,,1.0,,,,,,,,1.0,,,,1.0,,1.0,,,,1.0,1.0,,,,,,,,,,1.0,,,,1.0,,,1.0,,,1.0,,,
47,command-and-control,Dead Drop Resolver,T1102.001,,,,,,1.0,,,,,,,,,1.0,,,,,,,,,,,,,,,,,,,,,,,,,,,,,,,,,,,,1.0,,,,,,,,,1.0,,,,,,,1.0,,,,,,,,,,,,,,,,,,,,,,,,,,,,,,,,,,,,
48,command-and-control,Non-Standard Port,T1571,,,,,,1.0,1.0,,,,,,1.0,,,,,,,1.0,,,1.0,,,,,,,,,,,,,,,,,,,,,1.0,,,,,,,,,,,1.0,,1.0,,,,,1.0,,,,,,,,,,,1.0,,1.0,,,,,,,,,,,,,,,,,,,,,,,,,,,,
49,persistence| privilege-escalation| defense-evasion,LD_PRELOAD,T1574.006,,,,,,1.0,,,,,,,,,,,,,,,,,,,,,,,,,,,,,,,,,,,,,,,,,,,,,,,,,,,,,,,,,,,,,,,,,,,,,,,,,,,,,,,,,,,,,,,,,,,,,,,,,
50,execution,Python,T1059.006,,,,,,1.0,,,,,,,,,,1.0,,,,,,,,1.0,,,,,,,,1.0,,,,,,,,,,,,,,,,,,,1.0,,,,,,,,,,,,,,,,,,,,,,,,,,,,,,,,,,,,,,1.0,,,,,,,,,,,,,,
51,execution,Unix Shell,T1059.004,,,,,,1.0,,,,,,,,,1.0,,,,,,,,,,,,,,,,,,,,,,,,,,,,,,,,,,,,,,,,,,,,,,,,,,,,,,,,,,,,,,,,,,,,,,,,,,,,,,,,,,,,,,,,
52,defense-evasion,Hidden Files and Directories,T1564.001,,,,,,1.0,,,,,,,,,,,,,,,,,,,,,,,,1.0,,,,,,,,,,,,,,,,,,,,,,,,,,,1.0,,,,,,,,,,,,,,,,,,1.0,,,,,,,,,,,,,,,,,,,,,,1.0,,,,,,
53,discovery,Security Software Discovery,T1518.001,,,,,,1.0,,,,1.0,1.0,,,,,,,,,,,1.0,,,,,,,,1.0,,,,,1.0,,,,,,,,,,1.0,,1.0,,,,,,,,,,,,,,,,,,,,1.0,,,,,,,,,,,,,,,,,,,,1.0,,,,,1.0,,1.0,,,,,,,,,
54,defense-evasion,Disable or Modify System Firewall,T1562.004,,,,,,1.0,,,,,,,,,,,1.0,,,,,,,,,,,,,,,1.0,,,,,,,,,,,,,,,,,,,,,,,,,,,,,,,,,,,,,,,,,,,1.0,,,,,,,,,,,,,,,,,,,,,1.0,,,,,,,
55,defense-evasion,Disable or Modify Tools,T1562.001,,,,,,1.0,,,,1.0,,,,,,,1.0,,,,,,,,,,,,,,,,,1.0,,,,,,,,,,,,,,,,,1.0,,,,,,,,,,1.0,,,,,,,,,1.0,,,,,1.0,,,,,,,1.0,,,,,,,,1.0,,,,1.0,,,,,,,,,
56,lateral-movement,SSH,T1021.004,,,,,,1.0,,,,,,,,,,,,,,,,,1.0,1.0,,,,,,,,,,,,,,,,,,,1.0,,,,,,,,,,,,,,,1.0,,,,,1.0,,,,,,,,1.0,,,,,,,,,,,,,,,,,,,,,,,,,,,,,,,,
57,defense-evasion,Software Packing,T1027.002,,,,,,1.0,,,,,,,,,,,,1.0,1.0,,,1.0,,1.0,,,,,1.0,,,,1.0,,,,,,,,,,,,,,,1.0,,,,,,,,,,,,,,,,,,,1.0,,,,,,,,1.0,,,,,,,,,1.0,,,,,1.0,1.0,,,,,,,,,,,,,
58,defense-evasion,Linux and Mac File and Directory Permissions Modification,T1222.002,,,,,,1.0,,,,,,,,,,,,,,,,,,,,,,,,,,,,,,,,,,,,,,,,,,,,,,,,,,,1.0,,,,,,,,,,,,,,,,,,,,,,,,,,,,,,,,,,,,,,,,,,,,,,
59,credential-access,Private Keys,T1552.004,,,,,,1.0,,,,,,,,,,,,,,,,,,,,,,,,,,,,,,,,,,,,,,,,,,,,,,,,,,,,,,,,,,,,,,,,,,,,,,,,,,,,,,,,,,,,,,,,,,,,,,,,,
60,defense-evasion,Timestomp,T1070.006,,,,,,1.0,,,,,,,,,,,,,,,,,1.0,,,,,,,,,,,,,,,,,,,,,,,,,,,,,,,,,,1.0,,,,,,,,,,,,,,,,,,1.0,,,,,,,,,,,,,,,,,,,,,,1.0,,,,,,
61,defense-evasion,File Deletion,T1070.004,,,,,,1.0,,,,1.0,,,,,1.0,,1.0,,,1.0,,1.0,1.0,,,,,,1.0,1.0,,1.0,,,1.0,,,,,1.0,,,,,,,1.0,,,,1.0,,1.0,,1.0,,1.0,1.0,1.0,,1.0,,1.0,,1.0,,1.0,,,1.0,,,1.0,,1.0,,,,1.0,1.0,,,,1.0,,,,,1.0,,,,,,,,1.0,,,,,,
62,defense-evasion,Clear Linux or Mac System Logs,T1070.002,,,,,,1.0,,,,,,,,,,,,,,,,,,,,,,,,,,,,,,,,,,,,,,,,,,,,,,,,,,,,,,,,,,,,,,,,,,,,,,,,,,,,,,,,,,,,,,,,,,,,,,,,,
63,persistence| privilege-escalation,Registry Run Keys / Startup Folder,T1547.001,,,,,,1.0,,1.0,,1.0,,1.0,,,1.0,1.0,1.0,,,1.0,,,,1.0,,,,,,1.0,1.0,1.0,1.0,1.0,1.0,,,,,1.0,,1.0,1.0,1.0,1.0,,,,,,1.0,1.0,,,1.0,,1.0,,1.0,1.0,1.0,1.0,,,,,1.0,,,1.0,,,,,1.0,,,,1.0,1.0,,1.0,,1.0,1.0,,,,1.0,,,1.0,,1.0,,,,,,1.0,,,
64,persistence| privilege-escalation,Systemd Service,T1543.002,,,,,,1.0,,,,,,,,,,,,,,,,,,,,,,,,,,,,,,,,,,,,,,,,,,,,,,,,,,,,,,,,,,,,,,,,,,,,,,,,,,,,,,,,,,,,,,,,,,,,,,,,,
65,defense-evasion| privilege-escalation,Portable Executable Injection,T1055.002,,,,,,1.0,,,,,,,,,,,,,,,,,,,,,,,,,,,,1.0,,,,,,,,,,,,,,,,,,,,,,,,,,,,,,,,,,,,,,,,,,,,,,,,,,,,,,,,,,,,,,,,,,,,,
66,execution| persistence| privilege-escalation,Cron,T1053.003,,,,,,1.0,,,,,,,,,,,,,,,,,,,,,,,,,,,,,,,,,,,,,,,,,,,,,,,,,,,,,,,,,,,,,,,,,,,,,,,,,,,,,,,,,,,,,,,,,,,,,,,,,
67,defense-evasion,Deobfuscate/Decode Files or Information,T1140,,,,,,1.0,,,,,1.0,,,,,,,,,,1.0,,,,,,,,,1.0,1.0,,,1.0,,,,,,1.0,,,1.0,,1.0,,,,,,1.0,,,,,,,1.0,,,1.0,,1.0,,,,,,,,,,1.0,,,,,,1.0,,,,,,1.0,,,,,,,1.0,,1.0,,,1.0,,,,,,
68,command-and-control,Application Layer Protocol,T1071,,,,,,1.0,,,,,,,,,,,,,,,,,,,,,,,,,,1.0,,,,,,,,,,,,,,,,,,,,,,,1.0,,,,,,,,,,,,,,,,,,,,,,,,,,,,,,,,,,,,,,,,,,,,,,,,
69,discovery,Process Discovery,T1057,,,,,,1.0,,,,,1.0,1.0,,,,,,,,,,,,,,,,,1.0,1.0,,,,,,,,,,1.0,,1.0,,,1.0,,,,,,,,,,1.0,,,1.0,,,,,,1.0,,,,,1.0,,,,,1.0,1.0,,,,,,,,,1.0,1.0,,,,,,,1.0,,1.0,1.0,,1.0,1.0,,1.0,,,
70,discovery,Network Service Scanning,T1046,,,,,,1.0,1.0,,,,,,,,1.0,,,,,,,,,1.0,,,,,,1.0,,,,,1.0,,,,,,1.0,,,,,,,,,,,,,,,,1.0,1.0,,,,,1.0,,,,,1.0,,1.0,,,,,,,,,1.0,,,,,,,,,,,,,,,,,,,,,,,,
71,persistence| privilege-escalation,Boot or Logon Initialization Scripts,T1037,,,,,,1.0,,,,,,,,,,,,,,,,,,,,,,,,,,,,,,,,,,,,,,,,,,,,,,,,,,,,,,,,,,,,,,,,,,,,,,,,,,,,,,,,,,,,,,,,,,,,,,,,,
72,discovery,Remote System Discovery,T1018,,,,,,1.0,,,,1.0,,,,,,,,1.0,,1.0,,,,1.0,,,,,,,,1.0,,,,,,,,,1.0,,,,,,1.0,,,,1.0,,1.0,,,,1.0,,,,,,1.0,,,,,,,1.0,,,1.0,,,,,,1.0,,,,,1.0,,,,,,,,,,1.0,1.0,,,,,1.0,,,
73,defense-evasion,Rootkit,T1014,,,,,,1.0,,,,,,,,,1.0,,,,,,,,,,,,,,,,,,,,,,,,,,,,,,,,,,,,,,,,,,,,,,,,,1.0,,,,,,,,,,,,,,,,,,,,,,,,,,,,,,,,,1.0,,,,,,
74,initial-access,Hardware Additions,T1200,,,,,,,1.0,,,,,,,,,,,,,,,,,,,,,,,,,,,,,,,,,,,,,,,,,,,,,,,,,,,,,,,,,,,,,,,,,,,,,,,,,,,,,,,,,,,,,,,,,,,,,,,,
75,command-and-control,Remote Access Software,T1219,,,,,,,1.0,,,,,,,,,,1.0,,,,,,,,,,,,,,,,,,1.0,,,,1.0,,,,,,,,,,,,,,,,,,,,,1.0,,,,,,,,,,,,,1.0,,,,,,,,,,,,,,,,,1.0,,,,,,1.0,,,,,,,
76,discovery,Network Share Discovery,T1135,,,,,,,1.0,,,1.0,,,,,1.0,,,,,,,,,1.0,,,,,,1.0,,1.0,,,,,,,,,,,,,,,,,,,,,,,,1.0,1.0,,,,,,,,,,,,,,,,,,,,,,,,,,,,,,,,,,,,,,,,,1.0,,,,,
77,credential-access,Brute Force,T1110,,,,,,,1.0,,,,,,,,,,,,,,,,,1.0,,,,,,,,,,,,,,,,,,,,,,,,,,,,,1.0,,,,,1.0,,,,,,,,,,,,,,,,,,,,,,,,,,,,,,,,,,,,1.0,,,,,,,,,
78,credential-access| discovery,Network Sniffing,T1040,,,,,,,1.0,,,,,,,,,,,,,,,,,,1.0,,,,,,,,,,,,,,,,,,,1.0,,,,,,,,,,,,,,,,,,,,,,,,,,,,,1.0,,,,,,,,,,,,,,,,,,,,,,,,1.0,,,,,,
79,execution,Visual Basic,T1059.005,,,,,,,,1.0,,,1.0,1.0,1.0,,,,,,1.0,1.0,1.0,,,,,1.0,,,,,,,,1.0,1.0,,,1.0,,1.0,,1.0,1.0,1.0,1.0,,,,,1.0,1.0,,,,1.0,,1.0,,,,1.0,1.0,,,,,1.0,,,,,,1.0,,1.0,,,,,,,,,,1.0,,,,,,,,,1.0,,,,,,,,,
80,execution,Dynamic Data Exchange,T1559.002,,,,,,,,1.0,,,,,,,,,,,1.0,,,,,,,,1.0,,,,,,,,1.0,,,,,,,1.0,,,1.0,,,,,,,,,,,,,,,,,1.0,,,,,1.0,,,,,,,,,,,,,,,,,,,,,,,,,,,,,,1.0,,,,,,
81,defense-evasion| privilege-escalation,Process Injection,T1055,,,,,,,,1.0,,,,,,,1.0,,1.0,,,1.0,,,,,,,,,,,,,,,1.0,,,,,1.0,,1.0,,,,,,,1.0,,,,,,,,1.0,,,,,,,,,,,,,,,,,,,,,,,,,,,,,,,,,,,,,1.0,,,,,,,,,
82,resource-development,Code Signing Certificates,T1588.003,,,,,,,,,,1.0,,,,,,,,,,,,,,,,,,,,,,,,,,,,,,,,,,,,,,,,,,,,,,,,,,,,,,,,,,,,,,,,,,,,,,,,,,,,,,,,,,,,,,,,,,,,,
83,exfiltration,Exfiltration Over Unencrypted/Obfuscated Non-C2 Protocol,T1048.003,,,,,,,,,,1.0,,,,,,,,,,,,,,,,,,,,,,,,,,,,,1.0,,,,,1.0,,,1.0,,,,,,,,,,1.0,1.0,,,,,,,,,,,,1.0,,,,,1.0,,,,,,,,,,,,,,,,,,,,,,,,,,,,
84,defense-evasion| persistence| privilege-escalation| initial-access,Domain Accounts,T1078.002,,,,,,,,,,1.0,,,,,,,,,1.0,,,,,,,,,,,,,,,,,,,,,,,,,,,,,,,,,,,,,,,,,,,,,,,,,,,,,,,,,,,1.0,,,,,,1.0,,,,,1.0,,,,,,,,,,,,,,
85,lateral-movement,Lateral Tool Transfer,T1570,,,,,,,,,,1.0,,,,,,,,,,,,,,,,,,,,,,,,,,,,,,,,,,,,,,,,,,,,,,,1.0,,1.0,,,,,,,,,,,,,,,,,,,,,,,,,,,,,,,,,,,1.0,,,,,,,,,
86,discovery,Domain Groups,T1069.002,,,,,,,,,,1.0,,1.0,,,,,,,,,,,,,,,,,,,,1.0,,,,,,,,,,,,,,,,,,,,,,,,,,1.0,,,,,,,,,,,,1.0,,,,,,,,,,,,,,,,,,,,,,,,1.0,,,,,,1.0,,,
87,credential-access| collection,LLMNR/NBT-NS Poisoning and SMB Relay,T1557.001,,,,,,,,,,1.0,,,,,,,,,,,,,,,,,,,,,,,,,,,,,,,,,,,,,,,,,,,,,,,,,,,,,,,,,,,,,,,,,,,,,,,,,,,,,,,,,,,,,,,,,,,,,
88,credential-access,Kerberoasting,T1558.003,,,,,,,,,,1.0,,,,,,,,,,,,,,,,,,,,,,,,,,,,,,,,,,,,,,,,,,,,,,,,,,,,,,,,,,,,,,,,,,,,,,,,,,,,,,,,,,,,,,,,,,,,,
89,credential-access,Security Account Manager,T1003.002,,,,,,,,,,1.0,,,,,,,,1.0,,,,,,,,,,,,,,1.0,,,,,,,,,,,,,,,,,,,,,,,,,,,,,,,1.0,,,,,,,,,,,,,,,,1.0,,,,,,,,,,,1.0,,,,,,,,,,1.0,,,
90,lateral-movement,Windows Remote Management,T1021.006,,,,,,,,,,1.0,,,,,,,,,,,,,,,,,,,,,,,,,,,,,,,,,,,,,,,,,,,,,,,,,,,,,,,,,,,,,,,,,,,,,1.0,,,,,,,,,,,,,,,,,,,,,,,,
91,defense-evasion,Masquerade Task or Service,T1036.004,,,,,,,,,,1.0,,,1.0,,,,,,,,,,,,,,,,,,,,,,,,,,,,,,,,,,,,,,,1.0,,,,,1.0,,,,,1.0,,,,,,,,1.0,,,,,1.0,,,,,,,,,,,,,,,,,,,,,1.0,,,,,,,
92,defense-evasion,Code Signing,T1553.002,,,,,,,,,,1.0,,,,,1.0,,,,1.0,1.0,,,,,,,,,,,,,,,,,,,,1.0,,,1.0,,,,,,,,,1.0,,1.0,,,,,,,,1.0,,1.0,,,1.0,1.0,,1.0,,,,,,,,,,,,,,,1.0,,,,,,,1.0,,,,,,,,,,,
93,defense-evasion,Windows File and Directory Permissions Modification,T1222.001,,,,,,,,,,1.0,,,,,,,,,,,,,,,,,,,,,,,,,,,,,,,,,,,,,,,,,,,,,,,,,,,,,,,,,,,,,,,,,,,,,,,,,,,,,,,,,,,,,,,,,,,,,
94,persistence| privilege-escalation,Winlogon Helper DLL,T1547.004,,,,,,,,,,1.0,,,,,,,,,,,,,,,,,,,,1.0,,,,,,,,,,,,,,,,,,,,,,,,,,,,,,,,,,,,,,,,,,,,,,,,,,,,,,,,,,,,,,,,1.0,,,,,,,,,
95,defense-evasion| privilege-escalation,Dynamic-link Library Injection,T1055.001,,,,,,,,,,1.0,,,,,,,,,1.0,,,,,,,,,,,1.0,,,,,,,,,,,,,,,,,,,,,,,,,,,,,,,,,,,,,,,,,,,,,1.0,,,,,,,1.0,,,,,,,,,,,,1.0,,,,,,,,,
96,impact,Service Stop,T1489,,,,,,,,,,1.0,,,,,,,,,,,,,,,,,,,,,,,,,,,,,,,,,,,,,,,,,,,,,,,,,,,,,,,,,,,,,,,,,1.0,,,,,,,,,,,,,,,,,,,,,,,,,,,,
97,discovery,Domain Trust Discovery,T1482,,,,,,,,,,1.0,,,,,,,,,,,,,,,,,,,,,,,,,,,,,,,,,,,,,,,,,,,,,,,,,,,,,,,,,,,,,,,,,,,,,,,,,,,,,,,,,,,,,,,,,,,,,
98,lateral-movement,Exploitation of Remote Services,T1210,,,,,,,,,,1.0,,,,,,,,,,,,,,,,,,,,,,,,,,,,,,,,,,,,,,,,,,,,,,,,,,,,,,,,,,,,,,,,,,,,,1.0,,,,,,,,,,,,,,,,,,1.0,,,,,,
99,collection,Data Staged,T1074,,,,,,,,,,1.0,,,,,,,,,,,,,,,,,,,,,,,,,,,,,,,,,,,,,,,,,,,,,,,,,,,,,,,,,,,,,,,,,,,,,,,,,,,,,,,,,,,,,,,,,,,,,
100,exfiltration,Exfiltration Over C2 Channel,T1041,,,,,,,,,,1.0,1.0,,,,,,1.0,1.0,,,,,,,,,,,,,,,,,,,,,,,,,,,1.0,,,,,,,,,,,,1.0,,,,1.0,,,,,,,,1.0,,,,1.0,,1.0,,,,,,,,,1.0,,,,,,,,,,,,,,,,1.0,,,
101,discovery,System Owner/User Discovery,T1033,,,,,,,,,,1.0,1.0,,,,1.0,,,1.0,,,,,,1.0,,,,,,1.0,1.0,1.0,,,,,,,,,,1.0,,,1.0,,,,,,,,,,1.0,,1.0,1.0,1.0,,1.0,,,,,,1.0,,1.0,,,,,,1.0,,,,,,,,,1.0,,,,,,,,,,,,,,,,,,,
102,discovery,System Network Configuration Discovery,T1016,,,,,,,,,,1.0,1.0,,,,1.0,,,1.0,,,,,,,,,,,,1.0,1.0,1.0,,,,,,,,,,,,,1.0,,,,,,,,,,1.0,,1.0,1.0,,,,,1.0,,,,,,1.0,,,,1.0,,1.0,,,,1.0,,,,,1.0,,,1.0,1.0,,,,1.0,,1.0,,,,1.0,,1.0,,,
103,defense-evasion,MSBuild,T1127.001,,,,,,,,,,,1.0,,,,,,,,,,,,,,,,,,,,,,,,,,,,,,,,,,,,,,,,,,,,,,,,,,,,,,,,,,,,,,,,,,,,,,,,,,,,,,,,,,,,,,,,,,,,
104,command-and-control,Symmetric Cryptography,T1573.001,,,,,,,,,,,1.0,1.0,,,,,,,,,,,,,,,,,,,,,,,,,,,,,,,,1.0,,,,,,,1.0,,,,,,,,,,,,,,,,,,1.0,,,,,,1.0,,,,,,,,,,,,,,,,,,,,,,1.0,,,,,,
105,defense-evasion| discovery,System Checks,T1497.001,,,,,,,,,,,1.0,,,,,,,,,,,,,,,,,,,,,,,,,,,,,,,,,,,,,,,,,,,,,,,,,,,,,,,,,,,,,,,,,,,,,,,,,,,,,,,,,,,,,,,,,,,,
106,defense-evasion,Template Injection,T1221,,,,,,,,,,,1.0,1.0,,,,,,,,,,,,,,,,,,1.0,,1.0,,,,,1.0,,,,,,,,,,,,,,,,,,,,,,,,1.0,,,,,,,,,,,,,,,,,,,,,,,,,,,,,,,,,,,,1.0,,,,,,
107,execution,Exploitation for Client Execution,T1203,,,,,,,,,,,1.0,1.0,,1.0,1.0,,,,,,,1.0,,,,,,,,1.0,,,,,1.0,,,,,,,1.0,1.0,1.0,1.0,,,1.0,,1.0,1.0,,,,,,1.0,,,,,,,,,,1.0,,,,,,1.0,,1.0,,,,1.0,,,,,,,,,1.0,1.0,,,,,,,,1.0,,1.0,,,,
108,collection,Automated Collection,T1119,,,,,,,,,,,1.0,,,,,,,,,,,,,,,,,,,1.0,,,,,,,,,,,,,,,,,,,,,,,1.0,,,,,1.0,,,1.0,,,,,,1.0,,,1.0,,,,,,,,,1.0,,,,,,,,,,,,,,,,,,1.0,1.0,,,,,
109,exfiltration,Automated Exfiltration,T1020,,,,,,,,,,,1.0,,,,,,,,,,,,,,,,,,,1.0,,,,,,,,,,1.0,,,,,,,,,,,,,,,,,,,,,1.0,,,,,,,,,,,,,,,,,,,,,,,,,,,,,,,,,,,,,,,,,,
110,collection,Data from Local System,T1005,,,,,,,,,,,1.0,1.0,,,,,1.0,1.0,,,,,,1.0,,,,,,,,1.0,1.0,,,,,,,1.0,,1.0,,,,,,,,,1.0,,,,,,,,,,1.0,,1.0,,,,1.0,,1.0,1.0,,,,,1.0,1.0,,,1.0,,,,,1.0,,,,,,,,,,1.0,,,1.0,1.0,,1.0,,,
111,credential-access,OS Credential Dumping,T1003,,,,,,,,,,,1.0,,,,,,,,,,,,,1.0,,,,,,,,,,,,,,,,,,,1.0,,,,,,,,,,,,,1.0,1.0,,,,,,,,,,,1.0,,,,,,1.0,,,,,,,,,,,,,,,,,,,,,,,1.0,,,,,,1.0
112,command-and-control,Multi-hop Proxy,T1090.003,,,,,,,,,,,,1.0,,,,,,,,,,,,,,1.0,,,,,,,,,,,,,,,,,,,,,,,,,,,,,,,,,,,,,,,,,,,,,,,,,,,,,,,,,,,,,,,1.0,,,,,,,,,,,,,,
113,credential-access,Credentials from Web Browsers,T1555.003,,,,,,,,,,,,1.0,,,,,1.0,,1.0,,,,,,1.0,,,,,,,,,,,,,,,,1.0,1.0,,1.0,1.0,,,,,,,,,,1.0,,,1.0,,,,,,,,,1.0,,1.0,1.0,,,1.0,,,,,,,,,,,1.0,1.0,,,,,,,,,,,,,,,,,,
114,defense-evasion,Mshta,T1218.005,,,,,,,,,,,,1.0,,,,,1.0,,,,,,,,,,,,,,,,,,,,,,,,,,,,1.0,,,,,,,,,,,,1.0,,,,,1.0,,,,,,,,,,,,,1.0,,,,,,,,,,,,,,,,,,,,,,,,,,,,
115,discovery,Software Discovery,T1518,,,,,,,,,,,,1.0,,,,,,,,,,,,,,,,,,1.0,,,,,,,,,,,,,,,,,,,,,1.0,,,,,,,,,,,,,,,,,,,,,,,,,,,,,,,,,,,,,,,,,,,,,,,,,,,,
116,discovery,File and Directory Discovery,T1083,,,,,,,,,,,,1.0,,,1.0,,1.0,,,,,,,,,,,,,1.0,,1.0,1.0,,,,,,,1.0,1.0,,,,1.0,,,,,,1.0,,,,1.0,1.0,1.0,,,,1.0,,,,,,1.0,,,,,,,,1.0,1.0,,,,1.0,,,,1.0,,,,1.0,,,,,,1.0,,,1.0,,,1.0,,,
117,defense-evasion,Right-to-Left Override,T1036.002,,,,,,,,,,,,,,1.0,,,,,,,,,,,,,,,,,,,,,,,,,,,,,,,,,,,,,1.0,,,,,,,,,,,,,,,,,,,,,,,,,,1.0,,,,,,,,,,,,,,,,,,,,,,,1.0,,,
118,defense-evasion,Environmental Keying,T1480.001,,,,,,,,,,,,,,,1.0,,,,,,,,,,,,,,,,,,,,,,,,,,,,,,,,,,,,,,,,,,,,,,,,,,,,,,,,,,,,,,,,,,,,,,,1.0,,,,,,,,,,,,,,,,,
119,command-and-control,DNS,T1071.004,,,,,,,,,,,,,,,1.0,,,,,,,,,1.0,,,,,,1.0,,,,,1.0,,,,,,,,,,,,,,,,,,,,,,,1.0,,,,1.0,,,,,,,,,,,,,,,,,,1.0,,,,,,,,,,,,,,,,,,,,1.0,,,
120,command-and-control,File Transfer Protocols,T1071.002,,,,,,,,,,,,,,,1.0,1.0,,,,,,,,,,,,1.0,,,,,,,,,,,,1.0,,,,,,,,,,,,,,,,,,,,,,,,,,,,,,,,,,,,,,,,,,,,,,,,,,,,,,,,,,,,,,,
121,persistence| privilege-escalation| defense-evasion,DLL Side-Loading,T1574.002,,,,,,,,,,,,,,,1.0,,,1.0,,,,,,,,,,,,1.0,1.0,,,,,,,,,,,,,,,,,,,,1.0,,,,,,1.0,,,,,,1.0,,,,1.0,,,,,,,,,,,,1.0,,,,,1.0,,,1.0,,,,,,,,,,,,,,,,
122,command-and-control,Domain Generation Algorithms,T1568.002,,,,,,,,,,,,,,,1.0,,,,,,,,,,,,,,,,,,,,,,,,,,,,,,,,,,,,,,,,,,,,,,,,,,,,,,,,,,,,,,,,,,,,,,,,,,,,,,,,,,,,,,,,
123,collection| credential-access,Keylogging,T1056.001,,,,,,,,,,,,,,,1.0,,1.0,,,,,,,1.0,1.0,1.0,,,1.0,,,,,,,,,,,,,,,,,,,,1.0,,,,,,1.0,1.0,1.0,1.0,,,,,1.0,,1.0,,,,,,,,1.0,,1.0,,,,1.0,,,,,1.0,,,,,,,,1.0,,,,,1.0,,,1.0,,,
124,credential-access,Password Cracking,T1110.002,,,,,,,,,,,,,,,1.0,,,,,,,,,,,,,,,,,1.0,,,,,,,,,,,,,,,,,,,,,,,,,,,,,,,,,,,,,,1.0,,,,,,,,,,,,,,1.0,,,,,,,,,,,,,,,,,,,
125,defense-evasion,Clear Command History,T1070.003,,,,,,,,,,,,,,,1.0,,,,,,,,,,,,,,,,,,,,,,,,,,,,,,,,,,,,,,,,,,,,,,,,,,,,,,,,,,,,,,,,,,,,,,,,,,,,,,,,,,,,,,,,
126,defense-evasion,Clear Windows Event Logs,T1070.001,,,,,,,,,,,,,,,1.0,,,,,,,,,,,,,,1.0,,,1.0,,,,,,,,,,,,,,,1.0,,,,,,1.0,,,,1.0,,,,,,,,,,,,,,,,,,,,,,,,,,,,,,,,,,,,,,,,1.0,,,,,,
127,persistence,Local Account,T1136.001,,,,,,,,,,,,,,,1.0,,,,,,,,,1.0,,,,,,,,1.0,,,,,,,,,1.0,,,,,,,,,,,,,,,,,,,,,,,,,,,,,,,,,,,,,,,,,,,1.0,,,,,,,,,,,,,,,,,,,
128,privilege-escalation| persistence,Accessibility Features,T1546.008,,,,,,,,,,,,,,,1.0,,,,,,,,,,,,,,,,,,,,,,,,,,,,,,,,,,,,,,,,,,,,,,,,,,,,,,,,,,,,,,,,,,,,,1.0,,,,,1.0,,,,,,1.0,,,,,,,,1.0
129,defense-evasion,Compiled HTML File,T1218.001,,,,,,,,,,,,,,,1.0,,,,,1.0,,,,,,,,,,,,,1.0,,,,,,,,,,,,,,,,,,,,,,,,,1.0,,,,,,,,,,,,,,,,,1.0,,,,,,,,,,,,,,,,,,,,,,,,,,,,
130,persistence| defense-evasion,Bootkit,T1542.003,,,,,,,,,,,,,,,1.0,,,,,,,,,,,,,,,,,,,,,,,,,,,,,,,,,,,,,,,,,,,,,,,,,,,,,,,,,,,,1.0,,,,,,,,,,,,,,,,,,,,,,1.0,,,,,,
131,impact,Data Encrypted for Impact,T1486,,,,,,,,,,,,,,,1.0,,,,1.0,,,,,,,,,,1.0,,,,,,,,,,,,,,,,,,,,,,,,,,,,,,,,,,,,,,,,,,,,,,,,,,,,,,,,,,,,,,,,,,,,,,,,,,
132,defense-evasion| persistence,BITS Jobs,T1197,,,,,,,,,,,,,,,1.0,,,,,,,,,,,,,,,,,,,,,,,,,,,,1.0,,,,,,,,,,,,,,,,,,,,,,,,1.0,,,,,,,,,,,,,,,,,,,,,,,,,,,,,,,,,,,,
133,command-and-control,Multi-Stage Channels,T1104,,,,,,,,,,,,,,,1.0,,,,,,,,,,,,,,,,,,,,,,,,,,,,,,1.0,,,,,,,,,,,,,,,,,,,,,,,,,,,,,,,,,,,,,,,1.0,,,,,,,,,,,,,,,,,,,
134,discovery,System Network Connections Discovery,T1049,,,,,,,,,,,,,,,1.0,,,1.0,,,,,,,,,,,1.0,1.0,,,,,,,,,,,,,,,,,,,,,,,,,,,1.0,1.0,,,,,1.0,,,,,,,,,,,1.0,,,,,1.0,,,,,1.0,,,,1.0,,,,,,1.0,,,,1.0,,1.0,,,
135,command-and-control,Fallback Channels,T1008,,,,,,,,,,,,,,,1.0,,,,,,,,,,,,,,,,,,,,,,,,,,,,,,,,,,,,,,,,,,,1.0,,,,,,,,,,,,,,,,,1.0,,,,,,,,,,,,,,,,,,,,,,,,,,,,
136,collection,Local Data Staging,T1074.001,,,,,,,,,,,,,,,,1.0,,1.0,,,,,1.0,,,,,,,,,1.0,,,,,,,,1.0,,,1.0,,,,,,,,,,1.0,,,,,,,,,,1.0,,,,1.0,,,,,,,,1.0,,,,1.0,,,,,1.0,,,,,,,,,,,,,1.0,,,,,,
137,command-and-control,Fast Flux DNS,T1568.001,,,,,,,,,,,,,,,,1.0,,,1.0,,,,,,,,,,,,,,,,,,,,,,,,,,,,,,,,,,,,,,,,,,,,,,,,,,,,,,,,,,,,,,,,,,,,,,,,,,,,,,,,,,,,
138,collection,Data from Removable Media,T1025,,,,,,,,,,,,,,,,1.0,,,,,,,,,,,,,,,,,,,,,,,,,,,,,,,,,,,,,,,,,,,,,1.0,,,,,,,,,,,,,,,,,,,,,,,,,,,,,,,,,1.0,,,1.0,,,,,,
139,collection,Archive via Custom Method,T1560.003,,,,,,,,,,,,,,,,,1.0,,,,,,,,,,,,,,,,,,,,,,,,,,,,,,,,,,,,,1.0,,,,,,,,,,,,,,,,1.0,,,,,1.0,,,,,,,,,,,,,,,,,,,,,,,,,,,,
140,privilege-escalation| persistence,Change Default File Association,T1546.001,,,,,,,,,,,,,,,,,1.0,,,,,,,,,,,,,,,,,,,,,,,,,,,,,,,,,,,,,,,,,,,,,,,,,,,,,,,,,,,,,,,,,,,,,,,,,,,,,,,,,,,,,,
141,persistence,Browser Extensions,T1176,,,,,,,,,,,,,,,,,1.0,,,,,,,,1.0,,,,,,,,,,,,,,,,,,,,,,,,,,,,,,,,,,,,,,,,,,,,,,,,,,,,,,,,,,,,,,,,,,,,,,,,,,,,,,
142,defense-evasion,Indicator Removal from Tools,T1027.005,,,,,,,,,,,,,,,,,,1.0,,,,,1.0,,,,,,,,,,,,,,,,,,,,,,,,,,,,,,,,,,,1.0,,,,,,,,,1.0,,,,,,,,,,,,,,,,,1.0,,,,,,,,,,1.0,1.0,,,,,,,,
143,command-and-control,External Proxy,T1090.002,,,,,,,,,,,,,,,,,,1.0,,1.0,,,,1.0,,,,,,,,,,,,,,,,,,,,,1.0,,,,,,,,1.0,,,,,,,,,,1.0,,,,,,,,,,,,1.0,,,,,,,,,1.0,,,,,,,,,,,,,1.0,,,,,,
144,defense-evasion,Rename System Utilities,T1036.003,,,,,,,,,,,,,,,,,,1.0,,,,,,,,,,,,,,,,,,,,,,,,,,,,,,,1.0,,,,,,,,1.0,,,,,,1.0,,,,,,,,,,,,,,,,,,,,,,,,,,,,,,,,,,,,,,,,
145,defense-evasion| lateral-movement,Pass the Hash,T1550.002,,,,,,,,,,,,,,,,,,1.0,,,,,,,,,,,,,,,,,,,,,,,,,,,,,,,,,,,,,,,1.0,,,,,,,,,,,,,,,,,,,,,,,,,,,,,,,,,1.0,,,,,,,1.0,1.0,,,,,
146,persistence,Domain Account,T1136.002,,,,,,,,,,,,,,,,,,1.0,,,,,,,,,,,,,,,,,,,,,,,,,,,,,,,,,,,,,,,,,,,,,,,,,,,,,,,,,,,,,,,,,,,,,,,,,,,,,,,,,,,,,
147,persistence,Web Shell,T1505.003,,,,,,,,,,,,,,,,,,1.0,,,,,1.0,1.0,,,,,,1.0,,1.0,,,,,,,,,,,1.0,,,,,,,,,,,,,,1.0,1.0,,,,,,,,,,,,,,,,,,,,,1.0,,,,,,,,,,,,,,,,1.0,,,,,,,,
148,execution,JavaScript/JScript,T1059.007,,,,,,,,,,,,,,,,,,,1.0,1.0,,,,,,,,,,,,,,,1.0,,,,,,1.0,,,,,,,,,,,,,,,,1.0,,,,,1.0,,,,,,,,1.0,,,,,,,,,,,,,,,1.0,,,,,,,,,,,,,,,,,,
149,discovery,Email Account,T1087.003,,,,,,,,,,,,,,,,,,,1.0,,,,,,,,,,,,,,,,,,,,,,,,,,,,,,,,,,,,,,,,,,,,,,,,,,,,,,1.0,,,,,,,,,,,,,,,,,,,,,,,,,,,,,,
150,credential-access,Credentials In Files,T1552.001,,,,,,,,,,,,,,,,,,,1.0,,,,,,1.0,,,,,,,,,,,,,,,,1.0,,,1.0,1.0,,,,,,,,,,,,,1.0,,,,,,,,,,,,,,,,,,,,,,,,,,1.0,,,,,,,,,,,,,,,,,,,
151,defense-evasion,Msiexec,T1218.007,,,,,,,,,,,,,,,,,,,1.0,,,,,,,,,,,,,,,,,,,1.0,,,,,,,,,,,,,,,,,,,,,,,,,,,,,,,,,,,,,,,,,,,,,,,,,,,,,,,,,,,,,,,,,
152,discovery,Permission Groups Discovery,T1069,,,,,,,,,,,,,,,,,,,1.0,,,,,,,,,,,,,,,,,,,,,,,,,,,,,,,,,,,,,,,,,,,,,,,,,,,,,,,,,,,,,,,,,1.0,,,,,,,,,,,,,,,,,,,
153,collection,Video Capture,T1125,,,,,,,,,,,,,,,,,,,,1.0,,,,,,,,,,,,,,,,,,,,,,,,,,,,,,,,,,,,,,,,,,1.0,,,,,,,,,,,,,,,,,,,,,,,,,,,,,,,,,,,,,,,,,
154,collection,Screen Capture,T1113,,,,,,,,,,,,,,,,,,,,1.0,,,,1.0,,,,,,,,1.0,1.0,,,,,,,,,,,,1.0,,,,,,1.0,,,,1.0,,,1.0,,,1.0,1.0,,,1.0,,,,,,,,,,,,,,,,,,,,,,,,,,,,,,,,1.0,,,,,,
155,execution| lateral-movement,Software Deployment Tools,T1072,,,,,,,,,,,,,,,,,,,,1.0,,,,,,,,,,,,,,,,,,,,,,,,,,,,,,,,,,,,,1.0,,,,,,,,,,,,,,,,,,,,,1.0,,,,,,,,,,,,,,,,,,,,,,,,,
156,discovery,System Time Discovery,T1124,,,,,,,,,,,,,,,,,,,,,,1.0,,,,,,,,,,,,,,,,,,,,,,,,,,,,,1.0,,,,,,,,,,,,,,,,,,,,,,,,1.0,,,,,,,,,,,,,,,,,,,1.0,,,,,,,,,
157,resource-development,Virtual Private Server,T1583.003,,,,,,,,,,,,,,,,,,,,,,,1.0,,,,,,,,,,,,,,,,,,,,,,,,,,,,,,,,,,,,,,,,,,,,,,,,,,,,,,,,,,,,,,,,,,,,,,,,,,,,,,,,
158,privilege-escalation| persistence,Image File Execution Options Injection,T1546.012,,,,,,,,,,,,,,,,,,,,,,,1.0,,,,,,,,,,,,,,,,,,,,,,,,,,,,,,,,,,,,,,,,,,,,,,,,,,,,,,,,,,,,,,,,,,,,,,,,,,,,,,,,
159,command-and-control,Commonly Used Port,T1043,,,,,,,,,,,,,,,,,,,,,,,1.0,,,,,,,,1.0,1.0,,,,,,,,,,1.0,,,,,1.0,,,,,,,,1.0,,,1.0,,,,1.0,,,,,,,,,,,,,1.0,,,,1.0,1.0,,,,1.0,,,,,1.0,1.0,,,,,,,1.0,,,,,,
160,command-and-control,Internal Proxy,T1090.001,,,,,,,,,,,,,,,,,,,,,,,,1.0,,,,,,,,,,,,,,,,,,,,,,,,,,,,,,,,,,,,,,,,,,1.0,,,,,,,,,,,,,,,,,,,,,,,,,,,,,,,,,,,,,
161,command-and-control,Bidirectional Communication,T1102.002,,,,,,,,,,,,,,,,,,,,,,,,1.0,,,,,,,,,,,,,,,,,,1.0,,,,,,,,,,,,,1.0,,,,,,,1.0,,,,,,,,,,,1.0,,,,,,,,,,,,,,,,1.0,,,,,1.0,,1.0,,,1.0,,,,
162,credential-access,Credentials from Password Stores,T1555,,,,,,,,,,,,,,,,,,,,,,,,1.0,,,,,,,,,,,,,,,,,1.0,,,1.0,1.0,,,,,,,,,,,,,1.0,,,,,,,,,,,1.0,1.0,,,,,,,,,,,,,,,,,,,,,,,,1.0,,,,,,,,,
163,persistence| privilege-escalation,Shortcut Modification,T1547.009,,,,,,,,,,,,,,,,,,,,,,,,1.0,,,,,,,,1.0,,1.0,,,,,,,,,1.0,,,,,,,,,,,,,,,,,,,,,,,,,,,,,,,,1.0,,,,,,,,,,,,,,1.0,,,1.0,,,,,,,,,,,
164,collection,Clipboard Data,T1115,,,,,,,,,,,,,,,,,,,,,,,,1.0,,,,,1.0,,,,,,,,,,,,,,,,,,,,,,,,,,,,,,,,,,,,,,,,,,,,,,,,,,,,,,,,,,,,,,,,,,,,,,,,,,
165,defense-evasion| persistence| privilege-escalation| initial-access,Local Accounts,T1078.003,,,,,,,,,,,,,,,,,,,,,,,,,1.0,,,,,1.0,,,,,,,,,,,,,,,,,,,,,,1.0,,,,,1.0,,1.0,,,,,,,,,,,,,,,,,,,,,,,,,,,,,,,,,,,,,,,,,,,,
166,impact,Stored Data Manipulation,T1565.001,,,,,,,,,,,,,,,,,,,,,,,,,,1.0,,,1.0,,,,,,,,,,,,,,,,,,,,,,,,,,,,,,,,,,,,,,,,,,,,,,,,,,,,,,,,,,,,,,,,,,,,,,,,,,
167,collection,Remote Email Collection,T1114.002,,,,,,,,,,,,,,,,,,,,,,,,,,1.0,,,,,,1.0,,,,,,,,,1.0,,,,,,,,,,,,,,,,,,,,,,,,,,,,,,,,,,,,,,,,,,,,,,,,,,,,,,,,1.0,1.0,,1.0,,,
168,collection| credential-access,GUI Input Capture,T1056.002,,,,,,,,,,,,,,,,,,,,,,,,,,1.0,,,,,,,,,,,,,,,,,,,,,,,,,,,,,,,,,,,,,,,,,,,,,,,,,,,,,,,,,,,,,,,,,,,,,,,,,,,,,
169,command-and-control,Mail Protocols,T1071.003,,,,,,,,,,,,,,,,,,,,,,,,,,,,1.0,,,,,,,,,,,,,,,,,,,,,,,,,,,,,1.0,,,,,,,,,,,,,,,,,,,,,,,,,,,,,,,,,,,,,,,,1.0,,,,,,
170,impact,Runtime Data Manipulation,T1565.003,,,,,,,,,,,,,,,,,,,,,,,,,,,,,1.0,,,,,,,,,,,,,,,,,,,,,,,,,,,,,,,,,,,,,,,,,,,,,,,,,,,,,,,,,,,,,,,,,,,,,,,,,,
171,impact,Transmitted Data Manipulation,T1565.002,,,,,,,,,,,,,,,,,,,,,,,,,,,,,1.0,,,,,,,,,,,,,,,,,,,,,,,,,,,,,,,,,,,,,,,,,,,,,,,,,,,,,,,,,,,,,,,,,,,,,,,,,,
172,impact,Disk Structure Wipe,T1561.002,,,,,,,,,,,,,,,,,,,,,,,,,,,,,1.0,,,,,,,,,,,,,1.0,,,,,,,,,,,,,,,,,,,,,,,,,,,,,,,1.0,,1.0,,,,,,,,,,,,,,,,,,,,,,,,,,,,
173,impact,System Shutdown/Reboot,T1529,,,,,,,,,,,,,,,,,,,,,,,,,,,,,1.0,,,,,,,,,,,,,1.0,,,,,,,,,,,,,,,,,,,,,,,,,,,,,,,,,1.0,,,,,,,,,,,,,,,,,,,,,,,,,,,,
174,impact,Data Destruction,T1485,,,,,,,,,,,,,,,,,,,,,,,,,,,,,1.0,,,,,,,,,,,,,,,,,,,,,,,,,,,,,,,,,,,,,,,,,,,,1.0,,1.0,,,,,,,,,,,,,,,,,,,,,,,,,,,,
175,command-and-control,Asymmetric Cryptography,T1573.002,,,,,,,,,,,,,,,,,,,,,,,,,,,,,,1.0,,,,,1.0,,,,,,,,,,,,1.0,,,,,,,,,,,1.0,,,,,,,,,,,,1.0,,,,,,,,,,,,,,,,,,,,,,,,,,,,,,,,,
176,command-and-control,Encrypted Channel,T1573,,,,,,,,,,,,,,,,,,,,,,,,,,,,,,1.0,,,,,,,,,,,,,,,,,,,,,,,,,,,,,,,,,,,,,,,,,,,,,,,,,,,,,,,,,,,,,,,,,,,,,,,,,
177,command-and-control,Standard Encoding,T1132.001,,,,,,,,,,,,,,,,,,,,,,,,,,,,,,1.0,1.0,,,,,,,,,,,,,1.0,1.0,,,,,,1.0,,,,,,,,,,,,,,,,1.0,,,,,,1.0,,1.0,,,,,,,,,,,,,,,,,,,,,,,,,,,,
178,exfiltration,Exfiltration over USB,T1052.001,,,,,,,,,,,,,,,,,,,,,,,,,,,,,,1.0,,,,,,,,,,,,,,,,,,,,,,,,,,,,,,,,,,,,,,,,,,,,,,,,,,,,,,,,,,,,,,,,,,,,,,,,,
179,defense-evasion,Steganography,T1027.003,,,,,,,,,,,,,,,,,,,,,,,,,,,,,,1.0,,,,,,,,,,,,1.0,,,1.0,,,,,,1.0,,,,,,,,,,,,,,,,,,,,,,,,,,,,,,,,,,,,,,,,,,,,,,,,,,,,
180,lateral-movement| initial-access,Replication Through Removable Media,T1091,,,,,,,,,,,,,,,,,,,,,,,,,,,,,,1.0,,,,,,,,,,,,,,,,,,,,,,,,,,,,,,,,,,,,,,,,,,,,,,,,,,,,,,,,,,,,,,1.0,,,,,1.0,,,,,,
181,defense-evasion,Hidden Window,T1564.003,,,,,,,,,,,,,,,,,,,,,,,,,,,,,,,1.0,,,1.0,,,1.0,,,,,,,,,,,,,,,,,1.0,1.0,,1.0,,,,,,,,,,,,,,,,,,,,,,,,,,,1.0,,,,,,,,,,,1.0,,1.0,,,,,,
182,credential-access,LSA Secrets,T1003.004,,,,,,,,,,,,,,,,,,,,,,,,,,,,,,,,1.0,,,,,,,,,1.0,,,1.0,1.0,,,,,,,,,,,,,1.0,,,,,1.0,,,,,,,,,,,,,,,,1.0,,,,,,,,,,,,,,,,,,,,,1.0,,,
183,collection,Archive Collected Data,T1560,,,,,,,,,,,,,,,,,,,,,,,,,,,,,,,,1.0,,,,,,,,1.0,,,,,,,,,,,,,,,,,1.0,,,,,,1.0,,,,1.0,,,1.0,,,,,1.0,,,,,,,,,,,,,,,,,,,,,,1.0,,,1.0,,,
184,credential-access,Forced Authentication,T1187,,,,,,,,,,,,,,,,,,,,,,,,,,,,,,,,1.0,,,,,1.0,,,,,,,,,,,,,,,,,,,,,,,,,,,,,,,,,,,,,,,,,,,,,,,,,,,,,,,,,,,,,,,,,,
185,persistence,Account Manipulation,T1098,,,,,,,,,,,,,,,,,,,,,,,,,,,,,,,,1.0,,,,,,,,,,,,,,,,,,,,,,,,,,,,,,,,,,,,,,,,,,,1.0,,,,,,,,,1.0,,,,,,,,,,,,,,,,,,,
186,discovery,Query Registry,T1012,,,,,,,,,,,,,,,,,,,,,,,,,,,,,,,,1.0,,,,,,,,,,,,,,,,,,,,,,,,,1.0,1.0,,,,,,,,,,,1.0,,,,,,1.0,,,,1.0,,,,,,,,,,,,,,,1.0,,,,,,,,,
187,initial-access,Deliver Malicious App via Other Means,T1476,,,,,,,,,,,,,,,,,,,,,,,,,,,,,,,,,1.0,,,,,,,,,,,,,,,,,,,,,,,,,,,,,,,,,,,,,,,,,,,,,,,,,,,,,,,,,,,,,,,,,,,,,,
188,command-and-control| exfiltration,Standard Application Layer Protocol,T1437,,,,,,,,,,,,,,,,,,,,,,,,,,,,,,,,,1.0,,,,,,,,,,,,,,,,,,,,,,,,,,,,,,,,,,,,,,,,,,,,,,,,,,,,,,,,,,,,,,,,,,,,,,
189,defense-evasion| privilege-escalation,Process Hollowing,T1055.012,,,,,,,,,,,,,,,,,,,,,,,,,,,,,,,,,,1.0,,,,,,,,,,,,,,,,,,,,,,,,,,,,,1.0,,,,1.0,,,,,,,,,,,,1.0,,,,,,,,,,,,,,,,,,,,,,,,
190,command-and-control,Protocol Tunneling,T1572,,,,,,,,,,,,,,,,,,,,,,,,,,,,,,,,,,,1.0,,,,,,,,,,,,,,,,,,,,,,,1.0,,,,,,,,,,,,1.0,,,,,,,,,,,,,,,,,,,,,,,,,,,,,,,,,
191,privilege-escalation| defense-evasion,Bypass User Account Control,T1548.002,,,,,,,,,,,,,,,,,,,,,,,,,,,,,,,,,,,1.0,,,,,1.0,,1.0,,,1.0,,,,,,1.0,,,,,,,,,,,,,,,,1.0,,,,,,,,,,,,1.0,,,,,,,,,,1.0,,,,,,,,,,,,,,
192,defense-evasion,Odbcconf,T1218.008,,,,,,,,,,,,,,,,,,,,,,,,,,,,,,,,,,,1.0,,,,,,,,,,,,,,,,,,,,,,,,,,,,,,,,,,,,,,,,,,,,,,,,,,,,,,,,,,,,,,,,,,,,
193,defense-evasion,CMSTP,T1218.003,,,,,,,,,,,,,,,,,,,,,,,,,,,,,,,,,,,1.0,,,,,,,,,,1.0,,,,,,,,,,,,,,,,,,,,,,,,,,,,,,,,,,,,,,,,,,,,,,,,,,,,,,,,,,
194,persistence| privilege-escalation,Logon Script (Windows),T1037.001,,,,,,,,,,,,,,,,,,,,,,,,,,,,,,,,,,,1.0,,,,,,,,,,,,,,,,,,,,,,,,,,,,,,,,,,,,,,,,,,,,,,,,,,,,,,,,,,,,,,1.0,,,,,,
195,defense-evasion,XSL Script Processing,T1220,,,,,,,,,,,,,,,,,,,,,,,,,,,,,,,,,,,1.0,,,,,,,,,,,,,,,,,,,,,,,,,,,,,,,,,,,,,,,,,,,,,,,,,,,,,,,,,,,,,,,,,,,,
196,privilege-escalation| persistence,AppCert DLLs,T1546.009,,,,,,,,,,,,,,,,,,,,,,,,,,,,,,,,,,,,,,,,1.0,,,,,,,,,,,,,,,,,,,,,,,,,,,,,,,,,,,,,,,,,,,,,,,,,,,,,,,,,,,,,,,
197,credential-access,Cached Domain Credentials,T1003.005,,,,,,,,,,,,,,,,,,,,,,,,,,,,,,,,,,,,,,,,,1.0,,,1.0,1.0,,,,,,,,,,,,,1.0,,,,,,,,,,,,,,,,,,,,,,,,,,,,,,,,,,,,,,,,,,,,,
198,credential-access,Password Spraying,T1110.003,,,,,,,,,,,,,,,,,,,,,,,,,,,,,,,,,,,,,,,,,1.0,,,1.0,,,,,,,,,,,,,,,,,,,,,,,,,,,,,,,1.0,,,,,,,,,,,,,,,,,,,,,,1.0,,,,,,
199,defense-evasion| privilege-escalation,Process Doppelgänging,T1055.013,,,,,,,,,,,,,,,,,,,,,,,,,,,,,,,,,,,,,,,,,1.0,,,,,,,,,,,,,,,,,,,,,,,,,,,,,,,,,,,,,,,,,,,,,,,,,,,,,,,,,,,,,,
200,collection,Audio Capture,T1123,,,,,,,,,,,,,,,,,,,,,,,,,,,,,,,,,,,,,,,,,,1.0,,,,,,,,,,,,,,,,,,,,,,,,,,,,,,,,,,,,,,,,,,,,,,,,,,,,,,,,,,,,,
201,discovery,Peripheral Device Discovery,T1120,,,,,,,,,,,,,,,,,,,,,,,,,,,,,,,,,,,,,,,,,,1.0,,,,,,,,,,,,,,,,,,,1.0,,,,,,,,,,,,,,,,,,,,,,,,,1.0,,,,,,,,1.0,,,1.0,,,,,,
202,command-and-control,One-Way Communication,T1102.003,,,,,,,,,,,,,,,,,,,,,,,,,,,,,,,,,,,,,,,,,,,1.0,,,,,,,,,,,,,,,,,,,,,,,,,,,,,,,,,,,,,,,,,,,,,,,,,,,,,,,,,,,,
203,exfiltration,Exfiltration to Cloud Storage,T1567.002,,,,,,,,,,,,,,,,,,,,,,,,,,,,,,,,,,,,,,,,,,,1.0,,,,,,,,,,,,,,,,,,,,,,,,,,,,,,,,,,,,,,,,,,,,,,,,,,,1.0,,,,,,,,,
204,defense-evasion,Binary Padding,T1027.001,,,,,,,,,,,,,,,,,,,,,,,,,,,,,,,,,,,,,,,,,,,1.0,,,,,,,,1.0,,,,,,1.0,,,,1.0,,,,,,1.0,,,,,,,,,,,,,,,,,,,,,,,,,,,,,,,,,,,1.0,
205,defense-evasion| persistence| privilege-escalation| initial-access,Cloud Accounts,T1078.004,,,,,,,,,,,,,,,,,,,,,,,,,,,,,,,,,,,,,,,,,,,,1.0,,,,,,,,,,,,,,,,,,,,,,,,,,,,,,,,,,,,,,,,,,,,,,,,,,,,,,,,,,,
206,credential-access,Group Policy Preferences,T1552.006,,,,,,,,,,,,,,,,,,,,,,,,,,,,,,,,,,,,,,,,,,,,1.0,,,,,,,,,,,,,,,,,,,,,,,,,,,,,,,,,,,,,,,,,,,,,,,,,,,,,,,,,,,
207,execution,Component Object Model,T1559.001,,,,,,,,,,,,,,,,,,,,,,,,,,,,,,,,,,,,,,,,,,,,,1.0,,,,,,,,,,,,,,,,1.0,,,,,,,,,,,,,,,,,,,,,,,,,,,,,,,,,,,,,,,,,,
208,persistence,Office Template Macros,T1137.001,,,,,,,,,,,,,,,,,,,,,,,,,,,,,,,,,,,,,,,,,,,,,1.0,,,,,,,,,,,,,,,,,,,,,,,,,,,,,,,,,,,,,,,,,,,,,,,,,,,,,,,,,,
209,collection,Remote Data Staging,T1074.002,,,,,,,,,,,,,,,,,,,,,,,,,,,,,,,,,,,,,,,,,,,,,,,1.0,,,,,,,,,,,,,,,,1.0,,,,,,,1.0,,,,,,,,,1.0,,,,,,,,,,,1.0,,,,,,,,,,,,,
210,initial-access,Supply Chain Compromise,T1195,,,,,,,,,,,,,,,,,,,,,,,,,,,,,,,,,,,,,,,,,,,,,,,,1.0,,,,,,,,,,,,,,,,,,,,,,,,,,,,,,,,,,,,,,,,,,,,,,,,,,,,,,,
211,collection| credential-access,Credential API Hooking,T1056.004,,,,,,,,,,,,,,,,,,,,,,,,,,,,,,,,,,,,,,,,,,,,,,,,,1.0,,,,,,,,,,,,,,,,,,,,,,,,,,,,,,,,,,,,,,,,,,,,,,,,,,,,,,
212,command-and-control,Non-Application Layer Protocol,T1095,,,,,,,,,,,,,,,,,,,,,,,,,,,,,,,,,,,,,,,,,,,,,,,,,1.0,,,,,,,,,,,,,,,,,,,,,1.0,,,,,,,,,,,,,,1.0,,,,,1.0,,,,,,,,,,,,,,
213,defense-evasion| lateral-movement,Pass the Ticket,T1550.003,,,,,,,,,,,,,,,,,,,,,,,,,,,,,,,,,,,,,,,,,,,,,,,,,,,1.0,,,,,,1.0,,,,,,,,,,,,,,,,,,,,,,,,,,,,,,,,1.0,,,,,,,,,,,,,,
214,execution| persistence| privilege-escalation,At (Windows),T1053.002,,,,,,,,,,,,,,,,,,,,,,,,,,,,,,,,,,,,,,,,,,,,,,,,,,,1.0,,,,,,,,,,,,,,,,,,,,,,,,,,,,1.0,1.0,,,,,,,,,,,,,,,,,,,,,,,
215,lateral-movement,Taint Shared Content,T1080,,,,,,,,,,,,,,,,,,,,,,,,,,,,,,,,,,,,,,,,,,,,,,,,,,,1.0,,,,,,,,,,1.0,,,,,,,,,,,,,,,,,,,,,,,,,,,,,,,1.0,,,,,,,,,,,
216,collection,Data from Network Shared Drive,T1039,,,,,,,,,,,,,,,,,,,,,,,,,,,,,,,,,,,,,,,,,,,,,,,,,,,1.0,,,,,1.0,,,,,1.0,,1.0,,,,,,,,,,,,,,,,,,,,,,,,,,,,,,,,,,,,,,,,
217,discovery,System Service Discovery,T1007,,,,,,,,,,,,,,,,,,,,,,,,,,,,,,,,,,,,,,,,,,,,,,,,,,,1.0,,,,,,,1.0,,,,,,,,,,,,,,,,1.0,,,,,,,,,,,,,,1.0,,,,,,1.0,,,,1.0,,1.0,,,
218,resource-development,Digital Certificates,T1587.003,,,,,,,,,,,,,,,,,,,,,,,,,,,,,,,,,,,,,,,,,,,,,,,,,,,,1.0,,,,,,,,,,,,,,,,,,,,,,,,,,,,,,,,,,,,,1.0,,,,,,,,,,,,,,
219,resource-development,Code Signing Certificates,T1587.002,,,,,,,,,,,,,,,,,,,,,,,,,,,,,,,,,,,,,,,,,,,,,,,,,,,,1.0,,,,,,,,,,,,,,,1.0,,,,,,,,,,,,,,,,,,,,,,,,,,,,,,,,,,,,
220,defense-evasion| persistence| command-and-control,Port Knocking,T1205.001,,,,,,,,,,,,,,,,,,,,,,,,,,,,,,,,,,,,,,,,,,,,,,,,,,,,1.0,,,,,,,,,,,,,,,,,,,,,,,,,,,,,,,,,,,,,,,,,,,,,,,,,,,
221,collection,Local Email Collection,T1114.001,,,,,,,,,,,,,,,,,,,,,,,,,,,,,,,,,,,,,,,,,,,,,,,,,,,,,,,1.0,,,,,,,,,,,,,,,,,,,,,,,,,,,,,,,,,,,,,,,,,,,1.0,,,,,
222,persistence,Exchange Email Delegate Permissions,T1098.002,,,,,,,,,,,,,,,,,,,,,,,,,,,,,,,,,,,,,,,,,,,,,,,,,,,,,,,1.0,,,,,,,,,,,,,,,,,,,,,,,,,,,,,,,,,,,,,,,,,,,,,,,,
223,defense-evasion,NTFS File Attributes,T1564.004,,,,,,,,,,,,,,,,,,,,,,,,,,,,,,,,,,,,,,,,,,,,,,,,,,,,,,,,,1.0,,,,,,,,,,,,,,,,,,,,,,,,,,,,,,,,,,,,,,,,,,,,,,
224,discovery,Local Account,T1087.001,,,,,,,,,,,,,,,,,,,,,,,,,,,,,,,,,,,,,,,,,,,,,,,,,,,,,,,,,1.0,1.0,,,,,,,,,,,,,,,,1.0,,,,,1.0,,,,,1.0,,,,1.0,,,,,,1.0,,,,1.0,,1.0,,,
225,credential-access,Credentials in Registry,T1552.002,,,,,,,,,,,,,,,,,,,,,,,,,,,,,,,,,,,,,,,,,,,,,,,,,,,,,,,,,1.0,,,,,,,,,,,,,,,,,,,,,,,,,,,,,,,,,,,,,,,,,,,,,,
226,defense-evasion,PubPrn,T1216.001,,,,,,,,,,,,,,,,,,,,,,,,,,,,,,,,,,,,,,,,,,,,,,,,,,,,,,,,,1.0,,,,,,,,,,,,,,,,,,,,,,,,,,,,,,,,,,,,,,,,,,,,,,
227,persistence,Office Application Startup,T1137,,,,,,,,,,,,,,,,,,,,,,,,,,,,,,,,,,,,,,,,,,,,,,,,,,,,,,,,,1.0,,,,1.0,,,,,,,,,,,,,,,,,,,,,,,,,,,,,,,,,,,,,,,,,,
228,discovery,Local Groups,T1069.001,,,,,,,,,,,,,,,,,,,,,,,,,,,,,,,,,,,,,,,,,,,,,,,,,,,,,,,,,,1.0,,,,,,,,,,,,,,,,,,,,,,,,,,,,,,1.0,,,,,,1.0,,,,,,,,,
229,persistence,Outlook Home Page,T1137.004,,,,,,,,,,,,,,,,,,,,,,,,,,,,,,,,,,,,,,,,,,,,,,,,,,,,,,,,,,1.0,,,,,,,,,,,,,,,,,,,,,,,,,,,,,,,,,,,,,,,,,,,,,
230,discovery,Password Policy Discovery,T1201,,,,,,,,,,,,,,,,,,,,,,,,,,,,,,,,,,,,,,,,,,,,,,,,,,,,,,,,,,1.0,,,,,,,,,,,,,,,,,,,,,,,,,,,,,,,,,,,,1.0,,,,,,,,,
231,lateral-movement,Internal Spearphishing,T1534,,,,,,,,,,,,,,,,,,,,,,,,,,,,,,,,,,,,,,,,,,,,,,,,,,,,,,,,,,,,,1.0,,,,,,,,,,,,,,,,,,,,,,,,,,,,,,,,,,,,,,,,,,
232,resource-development,Malware,T1587.001,,,,,,,,,,,,,,,,,,,,,,,,,,,,,,,,,,,,,,,,,,,,,,,,,,,,,,,,,,,,,,1.0,,,,,,,,,,,,,,,,,,,,,,,,,,,,1.0,,,,1.0,,,,,,,1.0,,
233,defense-evasion| discovery,User Activity Based Checks,T1497.002,,,,,,,,,,,,,,,,,,,,,,,,,,,,,,,,,,,,,,,,,,,,,,,,,,,,,,,,,,,,,,1.0,,,,,,,,,,,,,,,,,,,,,,,,,,,,,,,,,,,,,,,,,
234,privilege-escalation| persistence,Application Shimming,T1546.011,,,,,,,,,,,,,,,,,,,,,,,,,,,,,,,,,,,,,,,,,,,,,,,,,,,,,,,,,,,,,,1.0,,,,,,,,,,,,,,,,,,,,,,,,,,,,,,,,,,,,,,,,,
235,defense-evasion,InstallUtil,T1218.004,,,,,,,,,,,,,,,,,,,,,,,,,,,,,,,,,,,,,,,,,,,,,,,,,,,,,,,,,,,,,,,1.0,,,,,,,,,,,,,,,,,,,,,,,,,,,,,,,,,,,,,,,,
236,defense-evasion,Hidden File System,T1564.005,,,,,,,,,,,,,,,,,,,,,,,,,,,,,,,,,,,,,,,,,,,,,,,,,,,,,,,,,,,,,,,,,,1.0,,,,,,,,,,,,,,,,,,,,1.0,,,,,,,,,,,,,,,,,
237,credential-access| defense-evasion,Password Filter DLL,T1556.002,,,,,,,,,,,,,,,,,,,,,,,,,,,,,,,,,,,,,,,,,,,,,,,,,,,,,,,,,,,,,,,,,,1.0,,,,,,,,,,,,,,,,,,,,,,,,,,,,,,,,,,,,,
238,collection,Data from Information Repositories,T1213,,,,,,,,,,,,,,,,,,,,,,,,,,,,,,,,,,,,,,,,,,,,,,,,,,,,,,,,,,,,,,,,,,,,,,1.0,,,,,,,,,,,,,,,,,,,,,,,,1.0,,,,,,,,,
239,lateral-movement,VNC,T1021.005,,,,,,,,,,,,,,,,,,,,,,,,,,,,,,,,,,,,,,,,,,,,,,,,,,,,,,,,,,,,,,,,,,,,,,,1.0,,,,,,,,,,,,,,,,,,,,,,,,,,,,,,,,
240,command-and-control,Protocol Impersonation,T1001.003,,,,,,,,,,,,,,,,,,,,,,,,,,,,,,,,,,,,,,,,,,,,,,,,,,,,,,,,,,,,,,,,,,,,,,,,,,,1.0,,,,,,,,,,,,,,,,,,,,,,,,,,,,
241,impact,Disk Content Wipe,T1561.001,,,,,,,,,,,,,,,,,,,,,,,,,,,,,,,,,,,,,,,,,,,,,,,,,,,,,,,,,,,,,,,,,,,,,,,,,,,1.0,,,,,,,,,,,,,,,,,,,,,,,,,,,,
242,collection,Archive via Library,T1560.002,,,,,,,,,,,,,,,,,,,,,,,,,,,,,,,,,,,,,,,,,,,,,,,,,,,,,,,,,,,,,,,,,,,,,,,,,,,1.0,,,,1.0,,,,,,,,,,,,,,,,,,,,,,,,
243,impact,Internal Defacement,T1491.001,,,,,,,,,,,,,,,,,,,,,,,,,,,,,,,,,,,,,,,,,,,,,,,,,,,,,,,,,,,,,,,,,,,,,,,,,,,1.0,,,,,,,,,,,,,,,,,,,,,,,,,,,,
244,defense-evasion| privilege-escalation,Create Process with Token,T1134.002,,,,,,,,,,,,,,,,,,,,,,,,,,,,,,,,,,,,,,,,,,,,,,,,,,,,,,,,,,,,,,,,,,,,,,,,,,,1.0,,,,,,,,,,,,,,,,,,,1.0,,,,,,,,,
245,persistence| privilege-escalation,Security Support Provider,T1547.005,,,,,,,,,,,,,,,,,,,,,,,,,,,,,,,,,,,,,,,,,,,,,,,,,,,,,,,,,,,,,,,,,,,,,,,,,,,1.0,,,,,,,,,,,,,,,,,,,,,,,,,,,,
246,command-and-control,Multiband Communication,T1026,,,,,,,,,,,,,,,,,,,,,,,,,,,,,,,,,,,,,,,,,,,,,,,,,,,,,,,,,,,,,,,,,,,,,,,,,,,1.0,,,,,,,,,,,,,,,,,,,,,,,,,,,,
247,discovery,Application Window Discovery,T1010,,,,,,,,,,,,,,,,,,,,,,,,,,,,,,,,,,,,,,,,,,,,,,,,,,,,,,,,,,,,,,,,,,,,,,,,,,,1.0,,,,,,,,,,,,,,,,,,,,,,,,,,,,
248,defense-evasion,Disable Windows Event Logging,T1562.002,,,,,,,,,,,,,,,,,,,,,,,,,,,,,,,,,,,,,,,,,,,,,,,,,,,,,,,,,,,,,,,,,,,,,,,,,,,,,,,1.0,,,,,,,,,,,,,,,,,,,,,,,,
249,defense-evasion,Network Share Connection Removal,T1070.005,,,,,,,,,,,,,,,,,,,,,,,,,,,,,,,,,,,,,,,,,,,,,,,,,,,,,,,,,,,,,,,,,,,,,,,,,,,,,,,1.0,,,,,,,,,,,,,,,,,,,,,,,,
250,exfiltration,Data Transfer Size Limits,T1030,,,,,,,,,,,,,,,,,,,,,,,,,,,,,,,,,,,,,,,,,,,,,,,,,,,,,,,,,,,,,,,,,,,,,,,,,,,,,,,1.0,,,,,,,,,,,,,,,,,,,,,,,,
251,resource-development,Establish Accounts,T1585,,,,,,,,,,,,,,,,,,,,,,,,,,,,,,,,,,,,,,,,,,,,,,,,,,,,,,,,,,,,,,,,,,,,,,,,,,,,,,,,,1.0,,,,,,,,,,,,,,,,,,,,,,
252,resource-development,Web Services,T1583.006,,,,,,,,,,,,,,,,,,,,,,,,,,,,,,,,,,,,,,,,,,,,,,,,,,,,,,,,,,,,,,,,,,,,,,,,,,,,,,,,,1.0,,,,,,,,1.0,,,,,,,,,,,,,,
253,resource-development,Server,T1584.004,,,,,,,,,,,,,,,,,,,,,,,,,,,,,,,,,,,,,,,,,,,,,,,,,,,,,,,,,,,,,,,,,,,,,,,,,,,,,,,,,,,1.0,,,,,,,,,,,1.0,,,,,,,,,
254,persistence| defense-evasion,Component Firmware,T1542.002,,,,,,,,,,,,,,,,,,,,,,,,,,,,,,,,,,,,,,,,,,,,,,,,,,,,,,,,,,,,,,,,,,,,,,,,,,,,,,,,,,,,,,1.0,,,,,,,,,,,,,,,,,
255,persistence,Add-ins,T1137.006,,,,,,,,,,,,,,,,,,,,,,,,,,,,,,,,,,,,,,,,,,,,,,,,,,,,,,,,,,,,,,,,,,,,,,,,,,,,,,,,,,,,,,,1.0,,,,,,,,,,,,,,,,
256,command-and-control,Steganography,T1001.002,,,,,,,,,,,,,,,,,,,,,,,,,,,,,,,,,,,,,,,,,,,,,,,,,,,,,,,,,,,,,,,,,,,,,,,,,,,,,,,,,,,,,,,,,1.0,,,,,,,,,,,,,,1.0
257,command-and-control,Domain Fronting,T1090.004,,,,,,,,,,,,,,,,,,,,,,,,,,,,,,,,,,,,,,,,,,,,,,,,,,,,,,,,,,,,,,,,,,,,,,,,,,,,,,,,,,,,,,,,,1.0,,,,,,,,,,,,,,
258,resource-development,Malware,T1588.001,,,,,,,,,,,,,,,,,,,,,,,,,,,,,,,,,,,,,,,,,,,,,,,,,,,,,,,,,,,,,,,,,,,,,,,,,,,,,,,,,,,,,,,,,,,,,,1.0,,,,1.0,,,,,
259,resource-development,Web Services,T1584.006,,,,,,,,,,,,,,,,,,,,,,,,,,,,,,,,,,,,,,,,,,,,,,,,,,,,,,,,,,,,,,,,,,,,,,,,,,,,,,,,,,,,,,,,,,,,,,1.0,,,,,,,,,
260,resource-development,Virtual Private Server,T1584.003,,,,,,,,,,,,,,,,,,,,,,,,,,,,,,,,,,,,,,,,,,,,,,,,,,,,,,,,,,,,,,,,,,,,,,,,,,,,,,,,,,,,,,,,,,,,,,1.0,,,,,,,,,
261,privilege-escalation| persistence,PowerShell Profile,T1546.013,,,,,,,,,,,,,,,,,,,,,,,,,,,,,,,,,,,,,,,,,,,,,,,,,,,,,,,,,,,,,,,,,,,,,,,,,,,,,,,,,,,,,,,,,,,,,,1.0,,,,,,,,,
262,resource-development,Domains,T1583.001,,,,,,,,,,,,,,,,,,,,,,,,,,,,,,,,,,,,,,,,,,,,,,,,,,,,,,,,,,,,,,,,,,,,,,,,,,,,,,,,,,,,,,,,,,,,,,,,,1.0,1.0,,,,,
263,privilege-escalation| persistence,Component Object Model Hijacking,T1546.015,,,,,,,,,,,,,,,,,,,,,,,,,,,,,,,,,,,,,,,,,,,,,,,,,,,,,,,,,,,,,,,,,,,,,,,,,,,,,,,,,,,,,,,,,,,,,,,,,1.0,,,,,,
264,command-and-control,Junk Data,T1001.001,,,,,,,,,,,,,,,,,,,,,,,,,,,,,,,,,,,,,,,,,,,,,,,,,,,,,,,,,,,,,,,,,,,,,,,,,,,,,,,,,,,,,,,,,,,,,,,,,1.0,,,,,,
265,defense-evasion| privilege-escalation,Token Impersonation/Theft,T1134.001,,,,,,,,,,,,,,,,,,,,,,,,,,,,,,,,,,,,,,,,,,,,,,,,,,,,,,,,,,,,,,,,,,,,,,,,,,,,,,,,,,,,,,,,,,,,,,,,,1.0,,,,,,
266,collection,Sharepoint,T1213.002,,,,,,,,,,,,,,,,,,,,,,,,,,,,,,,,,,,,,,,,,,,,,,,,,,,,,,,,,,,,,,,,,,,,,,,,,,,,,,,,,,,,,,,,,,,,,,,,,1.0,,,1.0,,,
267,credential-access,Password Guessing,T1110.001,,,,,,,,,,,,,,,,,,,,,,,,,,,,,,,,,,,,,,,,,,,,,,,,,,,,,,,,,,,,,,,,,,,,,,,,,,,,,,,,,,,,,,,,,,,,,,,,,1.0,,,,,,
268,defense-evasion| lateral-movement,Application Access Token,T1550.001,,,,,,,,,,,,,,,,,,,,,,,,,,,,,,,,,,,,,,,,,,,,,,,,,,,,,,,,,,,,,,,,,,,,,,,,,,,,,,,,,,,,,,,,,,,,,,,,,1.0,,,,,,
269,persistence,Office Test,T1137.002,,,,,,,,,,,,,,,,,,,,,,,,,,,,,,,,,,,,,,,,,,,,,,,,,,,,,,,,,,,,,,,,,,,,,,,,,,,,,,,,,,,,,,,,,,,,,,,,,1.0,,,,,,
270,credential-access,Steal Application Access Token,T1528,,,,,,,,,,,,,,,,,,,,,,,,,,,,,,,,,,,,,,,,,,,,,,,,,,,,,,,,,,,,,,,,,,,,,,,,,,,,,,,,,,,,,,,,,,,,,,,,,1.0,,,,,,
271,impact,Network Denial of Service,T1498,,,,,,,,,,,,,,,,,,,,,,,,,,,,,,,,,,,,,,,,,,,,,,,,,,,,,,,,,,,,,,,,,,,,,,,,,,,,,,,,,,,,,,,,,,,,,,,,,1.0,,,,,,
272,defense-evasion,Exploitation for Defense Evasion,T1211,,,,,,,,,,,,,,,,,,,,,,,,,,,,,,,,,,,,,,,,,,,,,,,,,,,,,,,,,,,,,,,,,,,,,,,,,,,,,,,,,,,,,,,,,,,,,,,,,1.0,,,,,,
273,command-and-control,Communication Through Removable Media,T1092,,,,,,,,,,,,,,,,,,,,,,,,,,,,,,,,,,,,,,,,,,,,,,,,,,,,,,,,,,,,,,,,,,,,,,,,,,,,,,,,,,,,,,,,,,,,,,,,,1.0,,,,,,
274,resource-development,Email Accounts,T1585.002,,,,,,,,,,,,,,,,,,,,,,,,,,,,,,,,,,,,,,,,,,,,,,,,,,,,,,,,,,,,,,,,,,,,,,,,,,,,,,,,,,,,,,,,,,,,,,,,,,1.0,,,,,
275,resource-development,Domains,T1584.001,,,,,,,,,,,,,,,,,,,,,,,,,,,,,,,,,,,,,,,,,,,,,,,,,,,,,,,,,,,,,,,,,,,,,,,,,,,,,,,,,,,,,,,,,,,,,,,,,,1.0,,,,,
276,command-and-control,DNS Calculation,T1568.003,,,,,,,,,,,,,,,,,,,,,,,,,,,,,,,,,,,,,,,,,,,,,,,,,,,,,,,,,,,,,,,,,,,,,,,,,,,,,,,,,,,,,,,,,,,,,,,,,,,1.0,,,,
277,credential-access,Golden Ticket,T1558.001,,,,,,,,,,,,,,,,,,,,,,,,,,,,,,,,,,,,,,,,,,,,,,,,,,,,,,,,,,,,,,,,,,,,,,,,,,,,,,,,,,,,,,,,,,,,,,,,,,,,1.0,,,
278,credential-access| collection,ARP Cache Poisoning,T1557.002,,,,,,,,,,,,,,,,,,,,,,,,,,,,,,,,,,,,,,,,,,,,,,,,,,,,,,,,,,,,,,,,,,,,,,,,,,,,,,,,,,,,,,,,,,,,,,,,,,,,,1.0,,
279,resource-development,Social Media Accounts,T1585.001,,,,,,,,,,,,,,,,,,,,,,,,,,,,,,,,,,,,,,,,,,,,,,,,,,,,,,,,,,,,,,,,,,,,,,,,,,,,,,,,,,,,,,,,,,,,,,,,,,,,,1.0,,
